…
Global_TC%>%arrange(desc(Year), desc(Global_Temp), desc(CO2_global)%>%head(128))

## # A tibble: 128 x 5
##     Year Global_Temp CO2_global         US      China
##    <dbl>       <dbl>      <dbl>      <dbl>      <dbl>
##  1  2017       0.677       407. 5269529513 9838754028
##  2  2016       0.797       404. 5310861406 9704479432
##  3  2015       0.763       401. 5420804127 9716467840
##  4  2014       0.579       399. 5568759258 9820360492
##  5  2013       0.514       397. 5519612557 9796527160
##  6  2012       0.47        394. 5366730281 9633899303
##  7  2011       0.425       392. 5570706560 9388199234
##  8  2010       0.56        390. 5701075808 8500542695
##  9  2009       0.506       387. 5495394958 7758811768
## 10  2008       0.395       386. 5932775281 7375189907
## # … with 118 more rows

Global_TC%>% group_by(Year)%>%summarize(avg_CO2 = mean(CO2_global, na.rm = T), sd_co2 = sd(CO2_global, na.rm = T)%>%head(10))

## # A tibble: 128 x 3
##     Year avg_CO2 sd_co2
##    <dbl>   <dbl>  <dbl>
##  1  1850    284      NA
##  2  1851    287.     NA
##  3  1854    288.     NA
##  4  1855    286.     NA
##  5  1857    283.     NA
##  6  1859    287.     NA
##  7  1862    287.     NA
##  8  1863    285.     NA
##  9  1864    287.     NA
## 10  1867    285.     NA
## # … with 118 more rows
…
Global_TC%>% group_by(Year)%>%summarize(avg_TEMP = mean(Global_Temp, na.rm = T), sd_temp = sd(Global_Temp, na.rm = T)%>%head(10))

## # A tibble: 128 x 3
##     Year avg_TEMP sd_temp
##    <dbl>    <dbl>   <dbl>
##  1  1850   -0.373      NA
##  2  1851   -0.218      NA
##  3  1854   -0.248      NA
##  4  1855   -0.272      NA
##  5  1857   -0.461      NA
##  6  1859   -0.284      NA
##  7  1862   -0.524      NA
##  8  1863   -0.278      NA
##  9  1864   -0.494      NA
## 10  1867   -0.321      NA
## # … with 118 more rows

Global_TC%>% group_by(Year)%>%summarize(med_US = median(US, na.rm = T), max_US = max(US, na.rm = T)%>%head(10))

## # A tibble: 128 x 3
##     Year   med_US   max_US
##    <dbl>    <dbl>    <dbl>
##  1  1850 19792928 19792928
##  2  1851 24633072 24633072
##  3  1854 26791168 26791168
##  4  1855 30162048 30162048
##  5  1857 33159200 33159200
##  6  1859 38160560 38160560
##  7  1862 40036528 40036528
##  8  1863 41055120 41055120
##  9  1864 41648688 41648688
## 10  1867 45320016 45320016
## # … with 118 more rows

Global_TC%>% group_by(Year)%>%summarize(med_china = median(China, na.rm = T), min_china = min(China, na.rm = T)%>%head(10))

## # A tibble: 128 x 3
##     Year med_china min_china
##    <dbl>     <dbl>     <dbl>
##  1  1850         0         0
##  2  1851         0         0
##  3  1854         0         0
##  4  1855         0         0
##  5  1857         0         0
##  6  1859         0         0
##  7  1862         0         0
##  8  1863         0         0
##  9  1864         0         0
## 10  1867         0         0
## # … with 118 more rows
…
Global_TC%>%mutate(Temp.dat = case_when(Global_Temp>.5 ~ "high", Global_Temp<.5 & Global_Temp>0 ~ "med", Global_Temp<0 ~ "low"))%>%group_by(Year)

## # A tibble: 128 x 6
## # Groups:   Year [128]
##     Year Global_Temp CO2_global       US China Temp.dat
##    <dbl>       <dbl>      <dbl>    <dbl> <dbl> <chr>   
##  1  1850      -0.373       284  19792928     0 low     
##  2  1851      -0.218       287. 24633072     0 low     
##  3  1854      -0.248       288. 26791168     0 low     
##  4  1855      -0.272       286. 30162048     0 low     
##  5  1857      -0.461       283. 33159200     0 low     
##  6  1859      -0.284       287. 38160560     0 low     
##  7  1862      -0.524       287. 40036528     0 low     
##  8  1863      -0.278       285. 41055120     0 low     
##  9  1864      -0.494       287. 41648688     0 low     
## 10  1867      -0.321       285. 45320016     0 low     
## # … with 118 more rows
…
